<define-tag pagetitle>DLA-1157-1 openssl</define-tag>
<define-tag report_date>2017-11-9</define-tag>
<define-tag secrefs>CVE-2017-3735</define-tag>
<define-tag packages>openssl</define-tag>
<define-tag isvulnerable>yes</define-tag>
<define-tag fixed>yes</define-tag>
<define-tag fixed-section>no</define-tag>

#use wml::debian::security

