<define-tag pagetitle>DLA-1368-1 libvorbis</define-tag>
<define-tag report_date>2018-4-30</define-tag>
<define-tag secrefs>CVE-2017-11333 CVE-2017-14632 CVE-2017-14633 CVE-2018-5146</define-tag>
<define-tag packages>libvorbis</define-tag>
<define-tag isvulnerable>yes</define-tag>
<define-tag fixed>yes</define-tag>
<define-tag fixed-section>no</define-tag>

#use wml::debian::security

