<define-tag pagetitle>DLA-1336-1 rubygems</define-tag>
<define-tag report_date>2018-4-1</define-tag>
<define-tag secrefs>CVE-2018-1000075 CVE-2018-1000076 CVE-2018-1000077 CVE-201</define-tag>
<define-tag packages>rubygems</define-tag>
<define-tag isvulnerable>yes</define-tag>
<define-tag fixed>yes</define-tag>
<define-tag fixed-section>no</define-tag>

#use wml::debian::security

