<define-tag pagetitle>DSA-4425-1 wget</define-tag>
<define-tag report_date>2019-4-05</define-tag>
<define-tag secrefs>CVE-2019-5953 Bug#926389</define-tag>
<define-tag packages>wget</define-tag>
<define-tag isvulnerable>yes</define-tag>
<define-tag fixed>yes</define-tag>
<define-tag fixed-section>no</define-tag>

#use wml::debian::security



</dl>
