<define-tag pagetitle>DLA-1707-1 symfony</define-tag>
<define-tag report_date>2019-03-09</define-tag>
<define-tag secrefs>CVE-2017-16652 CVE-2017-16654 CVE-2018-11385 CVE-2018-11408 CVE-2018-14773 CVE-2018-19789 CVE-2018-19790</define-tag>
<define-tag packages>symfony</define-tag>
<define-tag isvulnerable>yes</define-tag>
<define-tag fixed>yes</define-tag>
<define-tag fixed-section>no</define-tag>

#use wml::debian::security

