<define-tag pagetitle>DLA-1787-1 linux-4.9</define-tag>
<define-tag report_date>2019-05-15</define-tag>
<define-tag secrefs>CVE-2018-12126 CVE-2018-12127 CVE-2018-12130 CVE-2019-11091 Bug#928125</define-tag>
<define-tag packages>linux-4.9</define-tag>
<define-tag isvulnerable>yes</define-tag>
<define-tag fixed>yes</define-tag>
<define-tag fixed-section>no</define-tag>

#use wml::debian::security

