<define-tag pagetitle>DLA-768-1 pgpdump</define-tag>
<define-tag report_date>2016-12-30</define-tag>
<define-tag secrefs>CVE-2016-4021 Bug#773747</define-tag>
<define-tag packages>pgpdump</define-tag>
<define-tag isvulnerable>yes</define-tag>
<define-tag fixed>yes</define-tag>
<define-tag fixed-section>no</define-tag>

#use wml::debian::security

