<define-tag pagetitle>DLA-509-1 samba</define-tag>
<define-tag report_date>2016-6-9</define-tag>
<define-tag secrefs>Bug#820982 Bug#821811</define-tag>
<define-tag packages>samba</define-tag>
<define-tag isvulnerable>yes</define-tag>
<define-tag fixed>yes</define-tag>
<define-tag fixed-section>no</define-tag>

#use wml::debian::security

