<define-tag pagetitle>DLA-508-1 expat</define-tag>
<define-tag report_date>2016-6-8</define-tag>
<define-tag secrefs>CVE-2012-6702 CVE-2016-5300</define-tag>
<define-tag packages>expat</define-tag>
<define-tag isvulnerable>yes</define-tag>
<define-tag fixed>yes</define-tag>
<define-tag fixed-section>no</define-tag>

#use wml::debian::security

