<define-tag pagetitle>DLA-691-1 libxml2</define-tag>
<define-tag report_date>2016-10-31</define-tag>
<define-tag secrefs>CVE-2016-4658 CVE-2016-5131</define-tag>
<define-tag packages>libxml2</define-tag>
<define-tag isvulnerable>yes</define-tag>
<define-tag fixed>yes</define-tag>
<define-tag fixed-section>no</define-tag>

#use wml::debian::security

