<define-tag pagetitle>DLA-575-1 collectd</define-tag>
<define-tag report_date>2016-7-30</define-tag>
<define-tag secrefs>CVE-2016-6254 Bug#832507 Bug#832577</define-tag>
<define-tag packages>collectd</define-tag>
<define-tag isvulnerable>yes</define-tag>
<define-tag fixed>yes</define-tag>
<define-tag fixed-section>no</define-tag>

#use wml::debian::security

